synthesis/tests/proc.vcd
$date
	Wed Jul  8 20:29:25 2026
$end
$version
	Icarus Verilog
$end
$timescale
	1ps
$end
$scope module tb_proc $end
$var wire 1 ! ReadWrite $end
$var wire 3 " DataType [2:0] $end
$var wire 32 # DataOut [31:0] $end
$var wire 32 $ AddressOut [31:0] $end
$var reg 32 % In [31:0] $end
$var reg 1 & clock $end
$var reg 1 ' reset $end
$scope module dut $end
$var wire 32 ( DataOut [31:0] $end
$var wire 32 ) In [31:0] $end
$var wire 1 & clock $end
$var wire 1 ' reset $end
$var wire 1 * zero $end
$var wire 1 + overflow $end
$var wire 1 , negative $end
$var wire 32 - currentInst [31:0] $end
$var wire 32 . currentAddress [31:0] $end
$var wire 7 / ctrl_signals [6:0] $end
$var wire 1 0 carry $end
$var wire 32 1 RegB [31:0] $end
$var wire 32 2 RegA [31:0] $end
$var wire 1 ! ReadWrite $end
$var wire 2 3 RETsrc [1:0] $end
$var wire 32 4 PCaddressOut [31:0] $end
$var wire 32 5 OutB [31:0] $end
$var wire 32 6 OutA [31:0] $end
$var wire 32 7 MEMOut [31:0] $end
$var wire 2 8 Immtype [1:0] $end
$var wire 32 9 ExtendedImm [31:0] $end
$var wire 3 : DataType [2:0] $end
$var wire 2 ; ALUsrcB [1:0] $end
$var wire 2 < ALUsrcA [1:0] $end
$var wire 32 = ALUresult [31:0] $end
$var wire 4 > ALUctrl [3:0] $end
$var wire 32 ? ALUOut [31:0] $end
$var reg 32 @ AddressOut [31:0] $end
$var reg 32 A OperandA [31:0] $end
$var reg 32 B OperandB [31:0] $end
$var reg 32 C RET [31:0] $end
$scope module A $end
$var wire 32 D Out [31:0] $end
$var wire 1 & clock $end
$var wire 1 ' reset $end
$var wire 1 E write $end
$var wire 32 F In [31:0] $end
$var reg 32 G data [31:0] $end
$upscope $end
$scope module ALU $end
$var wire 32 H operandA [31:0] $end
$var wire 32 I operandB [31:0] $end
$var wire 1 + overflow $end
$var wire 1 * zero $end
$var wire 32 J result [31:0] $end
$var wire 1 , negative $end
$var wire 1 0 carry $end
$var wire 4 K aluOp [3:0] $end
$var reg 33 L resultAux [32:0] $end
$upscope $end
$scope module AR $end
$var wire 32 M Out [31:0] $end
$var wire 1 & clock $end
$var wire 1 ' reset $end
$var wire 1 N write $end
$var wire 32 O In [31:0] $end
$var reg 32 P data [31:0] $end
$upscope $end
$scope module AluReg $end
$var wire 32 Q In [31:0] $end
$var wire 32 R Out [31:0] $end
$var wire 1 & clock $end
$var wire 1 ' reset $end
$var wire 1 S write $end
$var reg 32 T data [31:0] $end
$upscope $end
$scope module B $end
$var wire 1 & clock $end
$var wire 1 ' reset $end
$var wire 1 U write $end
$var wire 32 V Out [31:0] $end
$var wire 32 W In [31:0] $end
$var reg 32 X data [31:0] $end
$upscope $end
$scope module EXT $end
$var wire 32 Y Out [31:0] $end
$var wire 32 Z Inst [31:0] $end
$var wire 2 [ Immtype [1:0] $end
$var reg 32 \ Immediate [31:0] $end
$upscope $end
$scope module IR $end
$var wire 32 ] In [31:0] $end
$var wire 1 & clock $end
$var wire 1 ' reset $end
$var wire 1 ^ write $end
$var wire 32 _ Out [31:0] $end
$var reg 32 ` data [31:0] $end
$upscope $end
$scope module MEMReg $end
$var wire 32 a In [31:0] $end
$var wire 32 b Out [31:0] $end
$var wire 1 & clock $end
$var wire 1 ' reset $end
$var wire 1 c write $end
$var reg 32 d data [31:0] $end
$upscope $end
$scope module PC $end
$var wire 32 e PCin [31:0] $end
$var wire 32 f PCout [31:0] $end
$var wire 1 & clock $end
$var wire 1 ' reset $end
$var wire 1 g write $end
$var reg 32 h PC_current [31:0] $end
$upscope $end
$scope module REGBank $end
$var wire 32 i DATAwrite [31:0] $end
$var wire 32 j Data_A [31:0] $end
$var wire 32 k Data_B [31:0] $end
$var wire 1 l REGwrite $end
$var wire 1 & clock $end
$var wire 5 m rd [4:0] $end
$var wire 1 ' reset $end
$var wire 5 n rs1 [4:0] $end
$var wire 5 o rs2 [4:0] $end
$var integer 32 p i [31:0] $end
$upscope $end
$scope module Unit $end
$var wire 1 & clock $end
$var wire 3 q funct3 [2:0] $end
$var wire 7 r funct7 [6:0] $end
$var wire 1 , negative $end
$var wire 7 s opcode [6:0] $end
$var wire 1 ' reset $end
$var wire 1 * zero $end
$var reg 4 t ALUctrl [3:0] $end
$var reg 2 u ALUsrcA [1:0] $end
$var reg 2 v ALUsrcB [1:0] $end
$var reg 2 w Immtype [1:0] $end
$var reg 3 x MEMdata [2:0] $end
$var reg 2 y RETsrc [1:0] $end
$var reg 7 z ctrl_signal [6:0] $end
$var reg 5 { next_state [4:0] $end
$var reg 5 | state [4:0] $end
$var integer 32 } i [31:0] $end
$scope task MEM_read $end
$upscope $end
$scope task MEM_wb $end
$upscope $end
$scope task MEM_write $end
$upscope $end
$scope task REG_wb $end
$upscope $end
$scope task type_B $end
$upscope $end
$scope task type_I $end
$upscope $end
$scope task type_R $end
$upscope $end
$scope task type_S $end
$upscope $end
$scope task type_U $end
$upscope $end
$upscope $end
$upscope $end
$scope begin TEST $end
$var integer 32 ~ i [31:0] $end
$upscope $end
$scope task cpu_reset $end
$upscope $end
$scope task dump_state $end
$upscope $end
$scope task step $end
$upscope $end
$upscope $end
$enddefinitions $end
$comment Show the parameter values. $end
$dumpall
$end
#0
$dumpvars
b100000000 ~
b110 }
b0 |
b1 {
bx000011 z
b10 y
bx x
b0 w
b10 v
b0 u
b0 t
bx s
bx r
bx q
bx p
bx o
bx n
bx m
0l
bx k
bx j
bx i
bx h
1g
bx f
bx e
bx d
1c
bx b
bx a
bx `
bx _
1^
bx ]
bx \
b0 [
bx Z
bx Y
bx X
bx W
bx V
1U
bx T
1S
bx R
bx Q
bx P
bx O
1N
bx M
bx L
b0 K
bx J
b10 I
bx H
bx G
bx F
1E
bx D
bx C
b10 B
bx A
bx @
bx ?
b0 >
bx =
b0 <
b10 ;
bx :
bx 9
b0 8
bx 7
bx 6
bx 5
bx 4
b10 3
bx 2
bx 1
x0
bx000011 /
bx .
bx -
x,
x+
x*
bx )
bx (
1'
0&
bx %
bx $
bx #
bx "
0!
$end
#10000
0+
0,
b10 C
b10 e
b10 i
0*
b10 =
b10 J
b10 Q
00
b10 3
b10 y
b10 ;
b10 v
bx000011 /
bx000011 z
b110 }
b1 {
b10 L
b1100001000000010010011 %
b1100001000000010010011 )
b1100001000000010010011 ]
b1100001000000010010011 a
b0 r
b0 q
b0 s
b0 m
b0 1
b0 W
b0 k
b0 o
b0 2
b0 F
b0 j
b0 n
b0 9
b0 Y
b0 \
b0 A
b0 H
b0 $
b0 @
b0 4
b0 O
b0 f
b0 h
b0 -
b0 Z
b0 _
b0 `
b0 .
b0 M
b0 P
b0 6
b0 D
b0 G
b0 #
b0 (
b0 5
b0 V
b0 X
b0 ?
b0 R
b0 T
b0 7
b0 b
b0 d
b100000 p
1&
#20000
0&
#30000
b100000 p
1&
#31000
0'
#40000
0&
#50000
0*
b11 =
b11 J
b11 Q
b11 L
b1000000001000001000000010110011 %
b1000000001000001000000010110011 )
b1000000001000001000000010110011 ]
b1000000001000001000000010110011 a
0N
0^
0g
b10011 s
b1 m
b11 o
b1 n
b11 9
b11 Y
b11 \
b11 B
b11 I
b10 $
b10 @
b100 {
b1 <
b1 u
b0 3
b0 y
b1 ;
b1 v
bx000000 /
bx000000 z
b110 }
b10 4
b10 O
b10 f
b10 h
b1100001000000010010011 -
b1100001000000010010011 Z
b1100001000000010010011 _
b1100001000000010010011 `
b10 ?
b10 R
b10 T
b1100001000000010010011 7
b1100001000000010010011 b
b1100001000000010010011 d
b1 |
1&
#60000
0&
#70000
b11 C
b11 e
b11 i
b1010 {
b1 ;
b1 v
b10 <
b10 u
b110 }
b1000000001000001000000010110011 7
b1000000001000001000000010110011 b
b1000000001000001000000010110011 d
b11 ?
b11 R
b11 T
b100 |
1&
#80000
0&
#90000
b10 =
b10 J
b10 Q
b10 L
1l
b0 B
b0 I
b10 A
b10 H
b0 {
bx000100 /
bx000100 z
b0 ;
b0 v
b0 <
b0 u
b110 }
b1010 |
1&
#100000
0&
#110000
b100 =
b100 J
b100 Q
b100 L
1N
1^
1g
0l
b100 C
b100 e
b100 i
b10 B
b10 I
b1 {
b10 3
b10 y
b10 ;
b10 v
bx000011 /
bx000011 z
b110 }
b10 ?
b10 R
b10 T
b11 2
b11 F
b11 j
b0 |
1&
#120000
0&
#130000
b10000000100 =
b10000000100 J
b10000000100 Q
b10000000100 L
b1000000000000010000000011 %
b1000000000000010000000011 )
b1000000000000010000000011 ]
b1000000000000010000000011 a
0N
0^
0g
b100000 r
b110011 s
b10 o
b10000000010 9
b10000000010 Y
b10000000010 \
b10000000010 B
b10000000010 I
b100 $
b100 @
b10 {
b1 <
b1 u
b0 3
b0 y
b1 ;
b1 v
bx000000 /
bx000000 z
b110 }
b100 4
b100 O
b100 f
b100 h
b1000000001000001000000010110011 -
b1000000001000001000000010110011 Z
b1000000001000001000000010110011 _
b1000000001000001000000010110011 `
b10 .
b10 M
b10 P
b11 6
b11 D
b11 G
b100 ?
b100 R
b100 T
b1 |
1&
#140000
0&
#150000
b11 =
b11 J
b11 Q
b11 L
b10000000100 C
b10000000100 e
b10000000100 i
b0 B
b0 I
b11 A
b11 H
b1010 {
b1 >
b1 K
b1 t
b0 ;
b0 v
b10 <
b10 u
b110 }
b1000000000000010000000011 7
b1000000000000010000000011 b
b1000000000000010000000011 d
b10000000100 ?
b10000000100 R
b10000000100 T
b10 |
1&
#160000
0&
#170000
b100 =
b100 J
b100 Q
1l
b100 L
b11 C
b11 e
b11 i
b100 A
b100 H
b0 {
bx000100 /
bx000100 z
b0 >
b0 K
b0 t
b0 <
b0 u
b110 }
b11 ?
b11 R
b11 T
b1010 |
1&
#180000
0&
#190000
b110 =
b110 J
b110 Q
b110 L
1N
1^
1g
0l
b110 C
b110 e
b110 i
b10 B
b10 I
b1 {
b10 3
b10 y
b10 ;
b10 v
bx000011 /
bx000011 z
b110 }
b100 ?
b100 R
b100 T
b0 |
1&
#200000
0&
#210000
b10100 =
b10100 J
b10100 Q
b10100 L
b11111111111111111100000111101111 %
b11111111111111111100000111101111 )
b11111111111111111100000111101111 ]
b11111111111111111100000111101111 a
0N
0^
0g
b0 r
b11 s
b1000 m
b10000 o
b0 2
b0 F
b0 j
b0 n
b10000 9
b10000 Y
b10000 \
b10000 B
b10000 I
b110 $
b110 @
b100 {
b1 <
b1 u
b0 3
b0 y
b1 ;
b1 v
bx000000 /
bx000000 z
b110 }
b110 4
b110 O
b110 f
b110 h
b1000000000000010000000011 -
b1000000000000010000000011 Z
b1000000000000010000000011 _
b1000000000000010000000011 `
b100 .
b100 M
b100 P
b110 ?
b110 R
b110 T
b1 |
1&
#220000
0&
#230000
b1110011 %
b1110011 )
b1110011 ]
b1110011 a
b10100 $
b10100 @
b10000 =
b10000 J
b10000 Q
b10000 L
b10100 C
b10100 e
b10100 i
b0 A
b0 H
b111 {
bx010000 /
bx010000 z
b1 ;
b1 v
b10 <
b10 u
b110 }
b11111111111111111100000111101111 7
b11111111111111111100000111101111 b
b11111111111111111100000111101111 d
b10100 ?
b10100 R
b10100 T
b0 6
b0 D
b0 G
b100 |
1&
#240000
0&
#250000
b10000 $
b10000 @
b110 =
b110 J
b110 Q
b110 L
b10000 C
b10000 e
b10000 i
b0 B
b0 I
b110 A
b110 H
b1001 {
b0 "
b0 :
b0 x
b0 ;
b0 v
b0 <
b0 u
bx010000 /
bx010000 z
b110 }
b10000 ?
b10000 R
b10000 T
b1110011 7
b1110011 b
b1110011 d
b111 |
1&
#260000
0&
#270000
b11111111111111111100000111101111 %
b11111111111111111100000111101111 )
b11111111111111111100000111101111 ]
b11111111111111111100000111101111 a
1l
b1110011 C
b1110011 e
b1110011 i
b110 $
b110 @
b0 {
b1 3
b1 y
bx000100 /
bx000100 z
b110 }
b110 ?
b110 R
b110 T
b1001 |
1&
#280000
0&
#290000
b1000 =
b1000 J
b1000 Q
b1000 L
1N
1^
1g
0l
b1000 C
b1000 e
b1000 i
b10 B
b10 I
b1 {
b10 ;
b10 v
b10 3
b10 y
bx000011 /
bx000011 z
b110 }
b11111111111111111100000111101111 7
b11111111111111111100000111101111 b
b11111111111111111100000111101111 d
b0 |
1&
#300000
0&
#310000
10
b10 =
b10 J
b10 Q
b11 8
b11 [
b11 w
b100000000000000000000000000000010 L
b10011 %
b10011 )
b10011 ]
b10011 a
0N
0^
0g
b1111111 r
b100 q
b1101111 s
b11 m
b11111 o
b11111 n
b11111111111111111111111111111100 9
b11111111111111111111111111111100 Y
b11111111111111111111111111111100 \
b11111111111111111111111111111100 B
b11111111111111111111111111111100 I
b1000 $
b1000 @
b110 {
b1 <
b1 u
b0 3
b0 y
b1 ;
b1 v
bx000000 /
bx000000 z
b110 }
b1000 ?
b1000 R
b1000 T
b110 .
b110 M
b110 P
b11111111111111111100000111101111 -
b11111111111111111100000111101111 Z
b11111111111111111100000111101111 _
b11111111111111111100000111101111 `
b1000 4
b1000 O
b1000 f
b1000 h
b1 |
1&
#320000
0&
#330000
b1000 =
b1000 J
b1000 Q
00
b1000 L
1g
b10 C
b10 e
b10 i
b10 B
b10 I
b1010 {
bx000001 /
bx000001 z
b10 ;
b10 v
b1 <
b1 u
b11 8
b11 [
b11 w
b110 }
b10 ?
b10 R
b10 T
b10011 7
b10011 b
b10011 d
b110 |
1&
#340000
0&
#350000
b10 =
b10 J
b10 Q
b10 L
b1000000001000001000000010110011 %
b1000000001000001000000010110011 )
b1000000001000001000000010110011 ]
b1000000001000001000000010110011 a
1l
b11111111111111111111111111111111 9
b11111111111111111111111111111111 Y
b11111111111111111111111111111111 \
0g
b1000 C
b1000 e
b1000 i
b0 B
b0 I
b10 A
b10 H
b10 $
b10 @
b0 {
b0 ;
b0 v
b0 <
b0 u
b0 8
b0 [
b0 w
bx000100 /
bx000100 z
b110 }
b1000 ?
b1000 R
b1000 T
b10 4
b10 O
b10 f
b10 h
b1010 |
1&
#360000
0&
#370000
b100 =
b100 J
b100 Q
b100 L
1N
1^
1g
0l
b100 C
b100 e
b100 i
b10 B
b10 I
b1 {
b10 3
b10 y
b10 ;
b10 v
bx000011 /
bx000011 z
b110 }
b10 ?
b10 R
b10 T
b1000000001000001000000010110011 7
b1000000001000001000000010110011 b
b1000000001000001000000010110011 d
b0 |
1&
#380000
0&
#390000
b10000000100 =
b10000000100 J
b10000000100 Q
00
b10000000100 L
b1000000000000010000000011 %
b1000000000000010000000011 )
b1000000000000010000000011 ]
b1000000000000010000000011 a
0N
0^
0g
b100000 r
b0 q
b110011 s
b1 m
b10 o
b11 2
b11 F
b11 j
b1 n
b10000000010 9
b10000000010 Y
b10000000010 \
b10000000010 B
b10000000010 I
b100 $
b100 @
b10 {
b0 8
b0 [
b0 w
b1 <
b1 u
b0 3
b0 y
b1 ;
b1 v
bx000000 /
bx000000 z
b110 }
b100 ?
b100 R
b100 T
b10 .
b10 M
b10 P
b1000000001000001000000010110011 -
b1000000001000001000000010110011 Z
b1000000001000001000000010110011 _
b1000000001000001000000010110011 `
b100 4
b100 O
b100 f
b100 h
b1 |
1&
#400000
0&
#410000
b11 =
b11 J
b11 Q
b11 L
b10000000100 C
b10000000100 e
b10000000100 i
b0 B
b0 I
b11 A
b11 H
b1010 {
b1 >
b1 K
b1 t
b0 ;
b0 v
b10 <
b10 u
b110 }
b11 6
b11 D
b11 G
b10000000100 ?
b10000000100 R
b10000000100 T
b1000000000000010000000011 7
b1000000000000010000000011 b
b1000000000000010000000011 d
b10 |
1&
#420000
0&
#430000
b100 =
b100 J
b100 Q
1l
b100 L
b11 C
b11 e
b11 i
b100 A
b100 H
b0 {
bx000100 /
bx000100 z
b0 >
b0 K
b0 t
b0 <
b0 u
b110 }
b11 ?
b11 R
b11 T
b1010 |
1&
#440000
0&
#450000
b110 =
b110 J
b110 Q
b110 L
1N
1^
1g
0l
b110 C
b110 e
b110 i
b10 B
b10 I
b1 {
b10 3
b10 y
b10 ;
b10 v
bx000011 /
bx000011 z
b110 }
b100 ?
b100 R
b100 T
b0 |
1&
#460000
0&
#470000
b10100 =
b10100 J
b10100 Q
b10100 L
b11111111111111111100000111101111 %
b11111111111111111100000111101111 )
b11111111111111111100000111101111 ]
b11111111111111111100000111101111 a
0N
0^
0g
b0 r
b11 s
b1000 m
b10000 o
b0 2
b0 F
b0 j
b0 n
b10000 9
b10000 Y
b10000 \
b10000 B
b10000 I
b110 $
b110 @
b100 {
b1 <
b1 u
b0 3
b0 y
b1 ;
b1 v
bx000000 /
bx000000 z
b110 }
b110 ?
b110 R
b110 T
b100 .
b100 M
b100 P
b1000000000000010000000011 -
b1000000000000010000000011 Z
b1000000000000010000000011 _
b1000000000000010000000011 `
b110 4
b110 O
b110 f
b110 h
b1 |
1&
#480000
0&
#490000
b1110011 %
b1110011 )
b1110011 ]
b1110011 a
b10100 $
b10100 @
b10000 =
b10000 J
b10000 Q
b10000 L
b10100 C
b10100 e
b10100 i
b0 A
b0 H
b111 {
bx010000 /
bx010000 z
b1 ;
b1 v
b10 <
b10 u
b110 }
b0 6
b0 D
b0 G
b10100 ?
b10100 R
b10100 T
b11111111111111111100000111101111 7
b11111111111111111100000111101111 b
b11111111111111111100000111101111 d
b100 |
1&
#500000
0&
#510000
b10000 $
b10000 @
b110 =
b110 J
b110 Q
b110 L
b10000 C
b10000 e
b10000 i
b0 B
b0 I
b110 A
b110 H
b1001 {
b0 ;
b0 v
b0 <
b0 u
bx010000 /
bx010000 z
b110 }
b1110011 7
b1110011 b
b1110011 d
b10000 ?
b10000 R
b10000 T
b111 |
1&
#520000
0&
#530000
b11111111111111111100000111101111 %
b11111111111111111100000111101111 )
b11111111111111111100000111101111 ]
b11111111111111111100000111101111 a
1l
b1110011 C
b1110011 e
b1110011 i
b110 $
b110 @
b0 {
b1 3
b1 y
bx000100 /
bx000100 z
b110 }
b110 ?
b110 R
b110 T
b1001 |
1&
#540000
0&
#550000
b1000 =
b1000 J
b1000 Q
b1000 L
1N
1^
1g
0l
b1000 C
b1000 e
b1000 i
b10 B
b10 I
b1 {
b10 ;
b10 v
b10 3
b10 y
bx000011 /
bx000011 z
b110 }
b11111111111111111100000111101111 7
b11111111111111111100000111101111 b
b11111111111111111100000111101111 d
b0 |
1&
#560000
0&
#570000
10
b10 =
b10 J
b10 Q
b11 8
b11 [
b11 w
b100000000000000000000000000000010 L
b10011 %
b10011 )
b10011 ]
b10011 a
0N
0^
0g
b1111111 r
b100 q
b1101111 s
b11 m
b11111 o
b11111 n
b11111111111111111111111111111100 9
b11111111111111111111111111111100 Y
b11111111111111111111111111111100 \
b11111111111111111111111111111100 B
b11111111111111111111111111111100 I
b1000 $
b1000 @
b110 {
b1 <
b1 u
b0 3
b0 y
b1 ;
b1 v
bx000000 /
bx000000 z
b110 }
b1000 4
b1000 O
b1000 f
b1000 h
b11111111111111111100000111101111 -
b11111111111111111100000111101111 Z
b11111111111111111100000111101111 _
b11111111111111111100000111101111 `
b110 .
b110 M
b110 P
b1000 ?
b1000 R
b1000 T
b1 |
1&
#580000
0&
#590000
b1000 =
b1000 J
b1000 Q
00
b1000 L
1g
b10 C
b10 e
b10 i
b10 B
b10 I
b1010 {
bx000001 /
bx000001 z
b10 ;
b10 v
b1 <
b1 u
b11 8
b11 [
b11 w
b110 }
b10011 7
b10011 b
b10011 d
b10 ?
b10 R
b10 T
b110 |
1&
#600000
0&
#610000
b10 =
b10 J
b10 Q
b10 L
b1000000001000001000000010110011 %
b1000000001000001000000010110011 )
b1000000001000001000000010110011 ]
b1000000001000001000000010110011 a
1l
b11111111111111111111111111111111 9
b11111111111111111111111111111111 Y
b11111111111111111111111111111111 \
0g
b1000 C
b1000 e
b1000 i
b0 B
b0 I
b10 A
b10 H
b10 $
b10 @
b0 {
b0 ;
b0 v
b0 <
b0 u
b0 8
b0 [
b0 w
bx000100 /
bx000100 z
b110 }
b10 4
b10 O
b10 f
b10 h
b1000 ?
b1000 R
b1000 T
b1010 |
1&
#620000
0&
#630000
b100 =
b100 J
b100 Q
b100 L
1N
1^
1g
0l
b100 C
b100 e
b100 i
b10 B
b10 I
b1 {
b10 3
b10 y
b10 ;
b10 v
bx000011 /
bx000011 z
b110 }
b1000000001000001000000010110011 7
b1000000001000001000000010110011 b
b1000000001000001000000010110011 d
b10 ?
b10 R
b10 T
b0 |
1&
#640000
0&
#650000
b10000000100 =
b10000000100 J
b10000000100 Q
00
b10000000100 L
b1000000000000010000000011 %
b1000000000000010000000011 )
b1000000000000010000000011 ]
b1000000000000010000000011 a
0N
0^
0g
b100000 r
b0 q
b110011 s
b1 m
b10 o
b11 2
b11 F
b11 j
b1 n
b10000000010 9
b10000000010 Y
b10000000010 \
b10000000010 B
b10000000010 I
b100 $
b100 @
b10 {
b0 8
b0 [
b0 w
b1 <
b1 u
b0 3
b0 y
b1 ;
b1 v
bx000000 /
bx000000 z
b110 }
b100 4
b100 O
b100 f
b100 h
b1000000001000001000000010110011 -
b1000000001000001000000010110011 Z
b1000000001000001000000010110011 _
b1000000001000001000000010110011 `
b10 .
b10 M
b10 P
b100 ?
b100 R
b100 T
b1 |
1&
#660000
0&
#670000
b11 =
b11 J
b11 Q
b11 L
b10000000100 C
b10000000100 e
b10000000100 i
b0 B
b0 I
b11 A
b11 H
b1010 {
b1 >
b1 K
b1 t
b0 ;
b0 v
b10 <
b10 u
b110 }
b1000000000000010000000011 7
b1000000000000010000000011 b
b1000000000000010000000011 d
b10000000100 ?
b10000000100 R
b10000000100 T
b11 6
b11 D
b11 G
b10 |
1&
#680000
0&
#690000
b100 =
b100 J
b100 Q
1l
b100 L
b11 C
b11 e
b11 i
b100 A
b100 H
b0 {
bx000100 /
bx000100 z
b0 >
b0 K
b0 t
b0 <
b0 u
b110 }
b11 ?
b11 R
b11 T
b1010 |
1&
#700000
0&
#710000
b110 =
b110 J
b110 Q
b110 L
1N
1^
1g
0l
b110 C
b110 e
b110 i
b10 B
b10 I
b1 {
b10 3
b10 y
b10 ;
b10 v
bx000011 /
bx000011 z
b110 }
b100 ?
b100 R
b100 T
b0 |
1&
#720000
0&
#730000
b10100 =
b10100 J
b10100 Q
b10100 L
b11111111111111111100000111101111 %
b11111111111111111100000111101111 )
b11111111111111111100000111101111 ]
b11111111111111111100000111101111 a
0N
0^
0g
b0 r
b11 s
b1000 m
b10000 o
b0 2
b0 F
b0 j
b0 n
b10000 9
b10000 Y
b10000 \
b10000 B
b10000 I
b110 $
b110 @
b100 {
b1 <
b1 u
b0 3
b0 y
b1 ;
b1 v
bx000000 /
bx000000 z
b110 }
b110 4
b110 O
b110 f
b110 h
b1000000000000010000000011 -
b1000000000000010000000011 Z
b1000000000000010000000011 _
b1000000000000010000000011 `
b100 .
b100 M
b100 P
b110 ?
b110 R
b110 T
b1 |
1&
#740000
0&
#750000
b1110011 %
b1110011 )
b1110011 ]
b1110011 a
b10100 $
b10100 @
b10000 =
b10000 J
b10000 Q
b10000 L
b10100 C
b10100 e
b10100 i
b0 A
b0 H
b111 {
bx010000 /
bx010000 z
b1 ;
b1 v
b10 <
b10 u
b110 }
b11111111111111111100000111101111 7
b11111111111111111100000111101111 b
b11111111111111111100000111101111 d
b10100 ?
b10100 R
b10100 T
b0 6
b0 D
b0 G
b100 |
1&
#760000
0&
#770000
b10000 $
b10000 @
b110 =
b110 J
b110 Q
b110 L
b10000 C
b10000 e
b10000 i
b0 B
b0 I
b110 A
b110 H
b1001 {
b0 ;
b0 v
b0 <
b0 u
bx010000 /
bx010000 z
b110 }
b10000 ?
b10000 R
b10000 T
b1110011 7
b1110011 b
b1110011 d
b111 |
1&
#780000
0&
#790000
b11111111111111111100000111101111 %
b11111111111111111100000111101111 )
b11111111111111111100000111101111 ]
b11111111111111111100000111101111 a
1l
b1110011 C
b1110011 e
b1110011 i
b110 $
b110 @
b0 {
b1 3
b1 y
bx000100 /
bx000100 z
b110 }
b110 ?
b110 R
b110 T
b1001 |
1&
#800000
0&
#810000
b1000 =
b1000 J
b1000 Q
b1000 L
1N
1^
1g
0l
b1000 C
b1000 e
b1000 i
b10 B
b10 I
b1 {
b10 ;
b10 v
b10 3
b10 y
bx000011 /
bx000011 z
b110 }
b11111111111111111100000111101111 7
b11111111111111111100000111101111 b
b11111111111111111100000111101111 d
b0 |
1&
#820000
0&
#830000
10
b10 =
b10 J
b10 Q
b11 8
b11 [
b11 w
b100000000000000000000000000000010 L
b10011 %
b10011 )
b10011 ]
b10011 a
0N
0^
0g
b1111111 r
b100 q
b1101111 s
b11 m
b11111 o
b11111 n
b11111111111111111111111111111100 9
b11111111111111111111111111111100 Y
b11111111111111111111111111111100 \
b11111111111111111111111111111100 B
b11111111111111111111111111111100 I
b1000 $
b1000 @
b110 {
b1 <
b1 u
b0 3
b0 y
b1 ;
b1 v
bx000000 /
bx000000 z
b110 }
b1000 ?
b1000 R
b1000 T
b110 .
b110 M
b110 P
b11111111111111111100000111101111 -
b11111111111111111100000111101111 Z
b11111111111111111100000111101111 _
b11111111111111111100000111101111 `
b1000 4
b1000 O
b1000 f
b1000 h
b1 |
1&
#840000
0&
#850000
b1000 =
b1000 J
b1000 Q
00
b1000 L
1g
b10 C
b10 e
b10 i
b10 B
b10 I
b1010 {
bx000001 /
bx000001 z
b10 ;
b10 v
b1 <
b1 u
b11 8
b11 [
b11 w
b110 }
b10 ?
b10 R
b10 T
b10011 7
b10011 b
b10011 d
b110 |
1&
#860000
0&
#870000
b10 =
b10 J
b10 Q
b10 L
b1000000001000001000000010110011 %
b1000000001000001000000010110011 )
b1000000001000001000000010110011 ]
b1000000001000001000000010110011 a
1l
b11111111111111111111111111111111 9
b11111111111111111111111111111111 Y
b11111111111111111111111111111111 \
0g
b1000 C
b1000 e
b1000 i
b0 B
b0 I
b10 A
b10 H
b10 $
b10 @
b0 {
b0 ;
b0 v
b0 <
b0 u
b0 8
b0 [
b0 w
bx000100 /
bx000100 z
b110 }
b1000 ?
b1000 R
b1000 T
b10 4
b10 O
b10 f
b10 h
b1010 |
1&
#880000
0&
#890000
b100 =
b100 J
b100 Q
b100 L
1N
1^
1g
0l
b100 C
b100 e
b100 i
b10 B
b10 I
b1 {
b10 3
b10 y
b10 ;
b10 v
bx000011 /
bx000011 z
b110 }
b10 ?
b10 R
b10 T
b1000000001000001000000010110011 7
b1000000001000001000000010110011 b
b1000000001000001000000010110011 d
b0 |
1&
#900000
0&
#910000
b10000000100 =
b10000000100 J
b10000000100 Q
00
b10000000100 L
b1000000000000010000000011 %
b1000000000000010000000011 )
b1000000000000010000000011 ]
b1000000000000010000000011 a
0N
0^
0g
b100000 r
b0 q
b110011 s
b1 m
b10 o
b11 2
b11 F
b11 j
b1 n
b10000000010 9
b10000000010 Y
b10000000010 \
b10000000010 B
b10000000010 I
b100 $
b100 @
b10 {
b0 8
b0 [
b0 w
b1 <
b1 u
b0 3
b0 y
b1 ;
b1 v
bx000000 /
bx000000 z
b110 }
b100 ?
b100 R
b100 T
b10 .
b10 M
b10 P
b1000000001000001000000010110011 -
b1000000001000001000000010110011 Z
b1000000001000001000000010110011 _
b1000000001000001000000010110011 `
b100 4
b100 O
b100 f
b100 h
b1 |
1&
#920000
0&
#930000
b11 =
b11 J
b11 Q
b11 L
b10000000100 C
b10000000100 e
b10000000100 i
b0 B
b0 I
b11 A
b11 H
b1010 {
b1 >
b1 K
b1 t
b0 ;
b0 v
b10 <
b10 u
b110 }
b11 6
b11 D
b11 G
b10000000100 ?
b10000000100 R
b10000000100 T
b1000000000000010000000011 7
b1000000000000010000000011 b
b1000000000000010000000011 d
b10 |
1&
#940000
0&
#950000
b100 =
b100 J
b100 Q
1l
b100 L
b11 C
b11 e
b11 i
b100 A
b100 H
b0 {
bx000100 /
bx000100 z
b0 >
b0 K
b0 t
b0 <
b0 u
b110 }
b11 ?
b11 R
b11 T
b1010 |
1&
#960000
0&
#970000
b110 =
b110 J
b110 Q
b110 L
1N
1^
1g
0l
b110 C
b110 e
b110 i
b10 B
b10 I
b1 {
b10 3
b10 y
b10 ;
b10 v
bx000011 /
bx000011 z
b110 }
b100 ?
b100 R
b100 T
b0 |
1&
#980000
0&
#990000
b10100 =
b10100 J
b10100 Q
b10100 L
b11111111111111111100000111101111 %
b11111111111111111100000111101111 )
b11111111111111111100000111101111 ]
b11111111111111111100000111101111 a
0N
0^
0g
b0 r
b11 s
b1000 m
b10000 o
b0 2
b0 F
b0 j
b0 n
b10000 9
b10000 Y
b10000 \
b10000 B
b10000 I
b110 $
b110 @
b100 {
b1 <
b1 u
b0 3
b0 y
b1 ;
b1 v
bx000000 /
bx000000 z
b110 }
b110 ?
b110 R
b110 T
b100 .
b100 M
b100 P
b1000000000000010000000011 -
b1000000000000010000000011 Z
b1000000000000010000000011 _
b1000000000000010000000011 `
b110 4
b110 O
b110 f
b110 h
b1 |
1&
#1000000
0&
#1010000
b1110011 %
b1110011 )
b1110011 ]
b1110011 a
b10100 $
b10100 @
b10000 =
b10000 J
b10000 Q
b10000 L
b10100 C
b10100 e
b10100 i
b0 A
b0 H
b111 {
bx010000 /
bx010000 z
b1 ;
b1 v
b10 <
b10 u
b110 }
b0 6
b0 D
b0 G
b10100 ?
b10100 R
b10100 T
b11111111111111111100000111101111 7
b11111111111111111100000111101111 b
b11111111111111111100000111101111 d
b100 |
1&
#1020000
0&
#1030000
b10000 $
b10000 @
b110 =
b110 J
b110 Q
b110 L
b10000 C
b10000 e
b10000 i
b0 B
b0 I
b110 A
b110 H
b1001 {
b0 ;
b0 v
b0 <
b0 u
bx010000 /
bx010000 z
b110 }
b1110011 7
b1110011 b
b1110011 d
b10000 ?
b10000 R
b10000 T
b111 |
1&
#1040000
0&
