tests/board.vcd
$date
	Fri Jul 10 16:24:44 2026
$end
$version
	Icarus Verilog
$end
$timescale
	1ps
$end
$scope module tb_board $end
$var reg 1 ! CLOCK_50 $end
$var reg 1 " reset $end
$scope module dut $end
$var wire 1 ! CLOCK_50 $end
$var wire 1 # RomAccess $end
$var wire 1 $ clock $end
$var wire 1 " reset $end
$var wire 32 % RomOut [31:0] $end
$var wire 1 & ReadWrite $end
$var wire 3 ' DataType [2:0] $end
$var wire 32 ( DataProc [31:0] $end
$var wire 32 ) AddressProc [31:0] $end
$var reg 32 * InputProc [31:0] $end
$scope module ProgROM $end
$var wire 1 + clock $end
$var wire 1 & MEMWrite $end
$var wire 32 , DataIn [31:0] $end
$var wire 32 - Address [31:0] $end
$var parameter 64 . INIT_FILE $end
$var parameter 32 / depth $end
$var reg 32 0 DataOut [31:0] $end
$upscope $end
$scope module RISCV $end
$var wire 32 1 DataOut [31:0] $end
$var wire 32 2 In [31:0] $end
$var wire 1 $ clock $end
$var wire 1 " reset $end
$var wire 1 3 zero $end
$var wire 1 4 overflow $end
$var wire 1 5 negative $end
$var wire 32 6 currentInst [31:0] $end
$var wire 32 7 currentAddress [31:0] $end
$var wire 7 8 ctrl_signals [6:0] $end
$var wire 1 9 carry $end
$var wire 32 : RegB [31:0] $end
$var wire 32 ; RegA [31:0] $end
$var wire 1 & ReadWrite $end
$var wire 2 < RETsrc [1:0] $end
$var wire 32 = PCaddressOut [31:0] $end
$var wire 32 > OutB [31:0] $end
$var wire 32 ? OutA [31:0] $end
$var wire 32 @ MEMOut [31:0] $end
$var wire 2 A Immtype [1:0] $end
$var wire 32 B ExtendedImm [31:0] $end
$var wire 3 C DataType [2:0] $end
$var wire 2 D ALUsrcB [1:0] $end
$var wire 2 E ALUsrcA [1:0] $end
$var wire 32 F ALUresult [31:0] $end
$var wire 4 G ALUctrl [3:0] $end
$var wire 32 H ALUOut [31:0] $end
$var reg 32 I AddressOut [31:0] $end
$var reg 32 J OperandA [31:0] $end
$var reg 32 K OperandB [31:0] $end
$var reg 32 L RET [31:0] $end
$scope module A $end
$var wire 32 M Out [31:0] $end
$var wire 1 $ clock $end
$var wire 1 " reset $end
$var wire 1 N write $end
$var wire 32 O In [31:0] $end
$var reg 32 P data [31:0] $end
$upscope $end
$scope module ALU $end
$var wire 32 Q operandA [31:0] $end
$var wire 32 R operandB [31:0] $end
$var wire 1 4 overflow $end
$var wire 1 3 zero $end
$var wire 32 S result [31:0] $end
$var wire 1 5 negative $end
$var wire 1 9 carry $end
$var wire 4 T aluOp [3:0] $end
$var reg 33 U resultAux [32:0] $end
$upscope $end
$scope module AR $end
$var wire 32 V Out [31:0] $end
$var wire 1 $ clock $end
$var wire 1 " reset $end
$var wire 1 W write $end
$var wire 32 X In [31:0] $end
$var reg 32 Y data [31:0] $end
$upscope $end
$scope module AluReg $end
$var wire 32 Z In [31:0] $end
$var wire 32 [ Out [31:0] $end
$var wire 1 $ clock $end
$var wire 1 " reset $end
$var wire 1 \ write $end
$var reg 32 ] data [31:0] $end
$upscope $end
$scope module B $end
$var wire 1 $ clock $end
$var wire 1 " reset $end
$var wire 1 ^ write $end
$var wire 32 _ Out [31:0] $end
$var wire 32 ` In [31:0] $end
$var reg 32 a data [31:0] $end
$upscope $end
$scope module EXT $end
$var wire 32 b Out [31:0] $end
$var wire 32 c Inst [31:0] $end
$var wire 2 d Immtype [1:0] $end
$var reg 32 e Immediate [31:0] $end
$upscope $end
$scope module IR $end
$var wire 32 f In [31:0] $end
$var wire 1 $ clock $end
$var wire 1 " reset $end
$var wire 1 g write $end
$var wire 32 h Out [31:0] $end
$var reg 32 i data [31:0] $end
$upscope $end
$scope module MEMReg $end
$var wire 32 j In [31:0] $end
$var wire 32 k Out [31:0] $end
$var wire 1 $ clock $end
$var wire 1 " reset $end
$var wire 1 l write $end
$var reg 32 m data [31:0] $end
$upscope $end
$scope module PC $end
$var wire 32 n PCin [31:0] $end
$var wire 32 o PCout [31:0] $end
$var wire 1 $ clock $end
$var wire 1 " reset $end
$var wire 1 p write $end
$var reg 32 q PC_current [31:0] $end
$upscope $end
$scope module REGBank $end
$var wire 32 r DATAwrite [31:0] $end
$var wire 32 s Data_A [31:0] $end
$var wire 32 t Data_B [31:0] $end
$var wire 1 u REGwrite $end
$var wire 1 $ clock $end
$var wire 5 v rd [4:0] $end
$var wire 1 " reset $end
$var wire 5 w rs1 [4:0] $end
$var wire 5 x rs2 [4:0] $end
$var integer 32 y i [31:0] $end
$upscope $end
$scope module Unit $end
$var wire 1 $ clock $end
$var wire 3 z funct3 [2:0] $end
$var wire 7 { funct7 [6:0] $end
$var wire 1 5 negative $end
$var wire 7 | opcode [6:0] $end
$var wire 1 " reset $end
$var wire 1 3 zero $end
$var reg 4 } ALUctrl [3:0] $end
$var reg 2 ~ ALUsrcA [1:0] $end
$var reg 2 !" ALUsrcB [1:0] $end
$var reg 2 "" Immtype [1:0] $end
$var reg 3 #" MEMdata [2:0] $end
$var reg 2 $" RETsrc [1:0] $end
$var reg 7 %" ctrl_signal [6:0] $end
$var reg 5 &" next_state [4:0] $end
$var reg 5 '" state [4:0] $end
$var integer 32 (" i [31:0] $end
$scope task MEM_read $end
$upscope $end
$scope task MEM_wb $end
$upscope $end
$scope task MEM_write $end
$upscope $end
$scope task REG_wb $end
$upscope $end
$scope task type_B $end
$upscope $end
$scope task type_I $end
$upscope $end
$scope task type_R $end
$upscope $end
$scope task type_S $end
$upscope $end
$scope task type_U $end
$upscope $end
$upscope $end
$upscope $end
$upscope $end
$scope task cpu_reset $end
$upscope $end
$upscope $end
$enddefinitions $end
$comment Show the parameter values. $end
$dumpall
b101 /
b111010001100101011100110111010000101110011011010110010101101101 .
$end
#0
$dumpvars
b110 ("
b0 '"
b1 &"
bx000011 %"
b10 $"
bx #"
b0 ""
b10 !"
b0 ~
b0 }
bx |
bx {
bx z
bx y
bx x
bx w
bx v
0u
bx t
bx s
bx r
bx q
1p
bx o
bx n
bx m
1l
bx k
bx j
bx i
bx h
1g
bx f
bx e
b0 d
bx c
bx b
bx a
bx `
bx _
1^
bx ]
1\
bx [
bx Z
bx Y
bx X
1W
bx V
bx U
b0 T
bx S
b10 R
bx Q
bx P
bx O
1N
bx M
bx L
b10 K
bx J
bx I
bx H
b0 G
bx F
b0 E
b10 D
bx C
bx B
b0 A
bx @
bx ?
bx >
bx =
b10 <
bx ;
bx :
x9
bx000011 8
bx 7
bx 6
x5
x4
x3
bx 2
bx 1
bx 0
bx -
bx ,
1+
bx *
bx )
bx (
bx '
0&
bx %
0$
1#
1"
0!
$end
#10000
04
05
b10 L
b10 n
b10 r
03
b10 F
b10 S
b10 Z
09
b10 <
b10 $"
b10 D
b10 !"
bx000011 8
bx000011 %"
b110 ("
b1 &"
b10 U
b0 {
b0 z
b0 |
b0 v
b0 :
b0 `
b0 t
b0 x
b0 ;
b0 O
b0 s
b0 w
b0 B
b0 b
b0 e
b0 J
b0 Q
b0 )
b0 -
b0 I
b0 =
b0 X
b0 o
b0 q
b0 6
b0 c
b0 h
b0 i
b0 7
b0 V
b0 Y
b0 ?
b0 M
b0 P
b0 (
b0 ,
b0 1
b0 >
b0 _
b0 a
b0 H
b0 [
b0 ]
b0 @
b0 k
b0 m
0+
b100000 y
1$
1!
#20000
b1100001000000010010011 *
b1100001000000010010011 2
b1100001000000010010011 f
b1100001000000010010011 j
b1100001000000010010011 %
b1100001000000010010011 0
1+
0$
0!
#30000
0+
b100000 y
1$
1!
#31000
0"
#40000
1+
0$
0!
#50000
03
b11 F
b11 S
b11 Z
b11 U
0W
0g
0p
b10011 |
b1 v
b11 x
b1 w
b11 B
b11 b
b11 e
b11 K
b11 R
b10 )
b10 -
b10 I
b100 &"
b1 E
b1 ~
b0 <
b0 $"
b1 D
b1 !"
bx000000 8
bx000000 %"
b110 ("
b10 =
b10 X
b10 o
b10 q
b1100001000000010010011 6
b1100001000000010010011 c
b1100001000000010010011 h
b1100001000000010010011 i
b10 H
b10 [
b10 ]
b1100001000000010010011 @
b1100001000000010010011 k
b1100001000000010010011 m
b1 '"
0+
1$
1!
#60000
b100000000000100010011 *
b100000000000100010011 2
b100000000000100010011 f
b100000000000100010011 j
b100000000000100010011 %
b100000000000100010011 0
1+
0$
0!
#70000
b11 L
b11 n
b11 r
b1010 &"
b1 D
b1 !"
b10 E
b10 ~
b110 ("
b100000000000100010011 @
b100000000000100010011 k
b100000000000100010011 m
b11 H
b11 [
b11 ]
b100 '"
0+
1$
1!
#80000
1+
0$
0!
#90000
b10 F
b10 S
b10 Z
b10 U
1u
b0 K
b0 R
b10 J
b10 Q
b0 &"
bx000100 8
bx000100 %"
b0 D
b0 !"
b0 E
b0 ~
b110 ("
b1010 '"
0+
1$
1!
#100000
1+
0$
0!
#110000
b100 F
b100 S
b100 Z
b100 U
1W
1g
1p
0u
b100 L
b100 n
b100 r
b10 K
b10 R
b1 &"
b10 <
b10 $"
b10 D
b10 !"
bx000011 8
bx000011 %"
b110 ("
b10 H
b10 [
b10 ]
b11 ;
b11 O
b11 s
b0 '"
0+
1$
1!
#120000
1+
0$
0!
#130000
b11 F
b11 S
b11 Z
b11 U
0W
0g
0p
b10 v
b11 :
b11 `
b11 t
b1 x
b0 ;
b0 O
b0 s
b0 w
b1 B
b1 b
b1 e
b1 K
b1 R
b100 )
b100 -
b100 I
b100 &"
b1 E
b1 ~
b0 <
b0 $"
b1 D
b1 !"
bx000000 8
bx000000 %"
b110 ("
b100 =
b100 X
b100 o
b100 q
b100000000000100010011 6
b100000000000100010011 c
b100000000000100010011 h
b100000000000100010011 i
b10 7
b10 V
b10 Y
b11 ?
b11 M
b11 P
b100 H
b100 [
b100 ]
b1 '"
0+
1$
1!
#140000
b1000000001000001000000010110011 *
b1000000001000001000000010110011 2
b1000000001000001000000010110011 f
b1000000001000001000000010110011 j
b1000000001000001000000010110011 %
b1000000001000001000000010110011 0
1+
0$
0!
#150000
b1 F
b1 S
b1 Z
b1 U
b11 L
b11 n
b11 r
b0 J
b0 Q
b1010 &"
b1 D
b1 !"
b10 E
b10 ~
b110 ("
b1000000001000001000000010110011 @
b1000000001000001000000010110011 k
b1000000001000001000000010110011 m
b11 H
b11 [
b11 ]
b11 (
b11 ,
b11 1
b11 >
b11 _
b11 a
b0 ?
b0 M
b0 P
b100 '"
0+
1$
1!
#160000
1+
0$
0!
#170000
b111 F
b111 S
b111 Z
b111 U
1u
b1 L
b1 n
b1 r
b11 K
b11 R
b100 J
b100 Q
b0 &"
bx000100 8
bx000100 %"
b0 D
b0 !"
b0 E
b0 ~
b110 ("
b1 H
b1 [
b1 ]
b1010 '"
0+
1$
1!
#180000
1+
0$
0!
#190000
b110 F
b110 S
b110 Z
b110 U
1W
1g
1p
0u
b110 L
b110 n
b110 r
b10 K
b10 R
b1 &"
b10 <
b10 $"
b10 D
b10 !"
bx000011 8
bx000011 %"
b110 ("
b111 H
b111 [
b111 ]
b0 '"
0+
1$
1!
#200000
1+
0$
0!
#210000
b10000000110 F
b10000000110 S
b10000000110 Z
b10000000110 U
0W
0g
0p
b100000 {
b110011 |
b1 v
b1 :
b1 `
b1 t
b10 x
b11 ;
b11 O
b11 s
b1 w
b10000000010 B
b10000000010 b
b10000000010 e
b10000000010 K
b10000000010 R
b110 )
b110 -
b110 I
b10 &"
b1 E
b1 ~
b0 <
b0 $"
b1 D
b1 !"
bx000000 8
bx000000 %"
b110 ("
b110 =
b110 X
b110 o
b110 q
b1000000001000001000000010110011 6
b1000000001000001000000010110011 c
b1000000001000001000000010110011 h
b1000000001000001000000010110011 i
b100 7
b100 V
b100 Y
b110 H
b110 [
b110 ]
b1 '"
0+
1$
1!
#220000
b100000000111100100011 *
b100000000111100100011 2
b100000000111100100011 f
b100000000111100100011 j
b100000000111100100011 %
b100000000111100100011 0
1+
0$
0!
#230000
b10 F
b10 S
b10 Z
b10 U
b10000000110 L
b10000000110 n
b10000000110 r
b1 K
b1 R
b11 J
b11 Q
b1010 &"
b1 G
b1 T
b1 }
b0 D
b0 !"
b10 E
b10 ~
b110 ("
b100000000111100100011 @
b100000000111100100011 k
b100000000111100100011 m
b10000000110 H
b10000000110 [
b10000000110 ]
b1 (
b1 ,
b1 1
b1 >
b1 _
b1 a
b11 ?
b11 M
b11 P
b10 '"
0+
1$
1!
#240000
1+
0$
0!
#250000
b111 F
b111 S
b111 Z
1u
b111 U
b10 L
b10 n
b10 r
b110 J
b110 Q
b0 &"
bx000100 8
bx000100 %"
b0 G
b0 T
b0 }
b0 E
b0 ~
b110 ("
b10 H
b10 [
b10 ]
b1010 '"
0+
1$
1!
#260000
1+
0$
0!
#270000
b1000 F
b1000 S
b1000 Z
b1000 U
1W
1g
1p
0u
b1000 L
b1000 n
b1000 r
b10 K
b10 R
b1 &"
b10 <
b10 $"
b10 D
b10 !"
bx000011 8
bx000011 %"
b110 ("
b111 H
b111 [
b111 ]
b10 ;
b10 O
b10 s
b0 '"
0+
1$
1!
#280000
1+
0$
0!
#290000
b111 F
b111 S
b111 Z
b111 U
0W
0g
0p
b0 {
b100011 |
b11110 v
b10 :
b10 `
b10 t
b1 x
b0 ;
b0 O
b0 s
b0 w
b1 B
b1 b
b1 e
b1 K
b1 R
b1000 )
b1000 -
b1000 I
b11 &"
b1 E
b1 ~
b0 <
b0 $"
b1 D
b1 !"
bx000000 8
bx000000 %"
b110 ("
b1000 =
b1000 X
b1000 o
b1000 q
b100000000111100100011 6
b100000000111100100011 c
b100000000111100100011 h
b100000000111100100011 i
b110 7
b110 V
b110 Y
b10 ?
b10 M
b10 P
b1000 H
b1000 [
b1000 ]
b1 '"
0+
1$
1!
#300000
b1111000000000010000000011 *
b1111000000000010000000011 2
b1111000000000010000000011 f
b1111000000000010000000011 j
b1111000000000010000000011 %
b1111000000000010000000011 0
1+
0$
0!
#310000
b11110 F
b11110 S
b11110 Z
b11110 K
b11110 R
b111 )
b111 -
b111 I
b11110 U
b11110 B
b11110 b
b11110 e
b111 L
b111 n
b111 r
b0 J
b0 Q
b1000 &"
bx010000 8
bx010000 %"
b1 A
b1 d
b1 ""
b1 D
b1 !"
b10 E
b10 ~
b110 ("
b1111000000000010000000011 @
b1111000000000010000000011 k
b1111000000000010000000011 m
b111 H
b111 [
b111 ]
b10 (
b10 ,
b10 1
b10 >
b10 _
b10 a
b0 ?
b0 M
b0 P
b11 '"
0+
1$
1!
#320000
b1111001000110000000111100000 *
b1111001000110000000111100000 2
b1111001000110000000111100000 f
b1111001000110000000111100000 j
b1111001000110000000111100000 %
b1111001000110000000111100000 0
1+
0$
0!
#330000
b1010 F
b1010 S
b1010 Z
b11110 )
b11110 -
b11110 I
b1010 U
1&
b1 B
b1 b
b1 e
b11110 L
b11110 n
b11110 r
b10 K
b10 R
b1000 J
b1000 Q
b0 &"
b0 '
b0 C
b0 #"
b0 D
b0 !"
b0 E
b0 ~
b0 A
b0 d
b0 ""
bx011000 8
bx011000 %"
b110 ("
b11110 H
b11110 [
b11110 ]
b1111001000110000000111100000 @
b1111001000110000000111100000 k
b1111001000110000000111100000 m
b1000 '"
0+
1$
1!
#340000
bx *
bx 2
bx f
bx j
bx %
bx 0
1+
0$
0!
#350000
1W
1g
1p
0&
b1010 L
b1010 n
b1010 r
b1000 )
b1000 -
b1000 I
b1 &"
b10 <
b10 $"
b10 D
b10 !"
bx000011 8
bx000011 %"
b110 ("
bx @
bx k
bx m
b1010 H
b1010 [
b1010 ]
b0 '"
0+
1$
1!
#360000
b1111000000000010000000011 *
b1111000000000010000000011 2
b1111000000000010000000011 f
b1111000000000010000000011 j
b1111000000000010000000011 %
b1111000000000010000000011 0
1+
0$
0!
#370000
b100110 F
b100110 S
b100110 Z
b100110 U
0W
0g
0p
b11 |
b1000 v
b0 :
b0 `
b0 t
b11110 x
b11110 B
b11110 b
b11110 e
b11110 K
b11110 R
b1010 )
b1010 -
b1010 I
b100 &"
b1 E
b1 ~
b0 <
b0 $"
b1 D
b1 !"
bx000000 8
bx000000 %"
b110 ("
b1010 =
b1010 X
b1010 o
b1010 q
b1111000000000010000000011 6
b1111000000000010000000011 c
b1111000000000010000000011 h
b1111000000000010000000011 i
b1000 7
b1000 V
b1000 Y
b1111000000000010000000011 @
b1111000000000010000000011 k
b1111000000000010000000011 m
b1 '"
0+
1$
1!
#380000
b100000000000010001100011 *
b100000000000010001100011 2
b100000000000010001100011 f
b100000000000010001100011 j
b100000000000010001100011 %
b100000000000010001100011 0
1+
0$
0!
#390000
b100110 )
b100110 -
b100110 I
b11110 F
b11110 S
b11110 Z
b11110 U
b100110 L
b100110 n
b100110 r
b0 J
b0 Q
b111 &"
bx010000 8
bx010000 %"
b1 D
b1 !"
b10 E
b10 ~
b110 ("
b100000000000010001100011 @
b100000000000010001100011 k
b100000000000010001100011 m
b100110 H
b100110 [
b100110 ]
b0 (
b0 ,
b0 1
b0 >
b0 _
b0 a
b100 '"
0+
1$
1!
#400000
bx *
bx 2
bx f
bx j
bx %
bx 0
1+
0$
0!
#410000
b11110 )
b11110 -
b11110 I
b1010 F
b1010 S
b1010 Z
b1010 U
b11110 L
b11110 n
b11110 r
b0 K
b0 R
b1010 J
b1010 Q
b1001 &"
b0 D
b0 !"
b0 E
b0 ~
bx010000 8
bx010000 %"
b110 ("
b11110 H
b11110 [
b11110 ]
bx @
bx k
bx m
b111 '"
0+
1$
1!
#420000
b10 *
b10 2
b10 f
b10 j
b10 %
b10 0
1+
0$
0!
#430000
1u
b10 L
b10 n
b10 r
b1010 )
b1010 -
b1010 I
b0 &"
b1 <
b1 $"
bx000100 8
bx000100 %"
b110 ("
b10 @
b10 k
b10 m
b1010 H
b1010 [
b1010 ]
b1001 '"
0+
1$
1!
#440000
b100000000000010001100011 *
b100000000000010001100011 2
b100000000000010001100011 f
b100000000000010001100011 j
b100000000000010001100011 %
b100000000000010001100011 0
1+
0$
0!
#450000
b1100 F
b1100 S
b1100 Z
b1100 U
1W
1g
1p
0u
b1100 L
b1100 n
b1100 r
b10 K
b10 R
b1 &"
b10 D
b10 !"
b10 <
b10 $"
bx000011 8
bx000011 %"
b110 ("
b100000000000010001100011 @
b100000000000010001100011 k
b100000000000010001100011 m
b0 '"
0+
1$
1!
#460000
1+
0$
0!
#470000
b10010 F
b10010 S
b10010 Z
b10 A
b10 d
b10 ""
b10010 U
0W
0g
0p
b1100011 |
b10 :
b10 `
b10 t
b1000 x
b1000 B
b1000 b
b1000 e
b1000 K
b1000 R
b1100 )
b1100 -
b1100 I
b101 &"
b1 E
b1 ~
b0 <
b0 $"
b1 D
b1 !"
bx000000 8
bx000000 %"
b110 ("
b1100 H
b1100 [
b1100 ]
b1010 7
b1010 V
b1010 Y
b100000000000010001100011 6
b100000000000010001100011 c
b100000000000010001100011 h
b100000000000010001100011 i
b1100 =
b1100 X
b1100 o
b1100 q
b1 '"
0+
1$
1!
#480000
b11111111111111111000000111101111 *
b11111111111111111000000111101111 2
b11111111111111111000000111101111 f
b11111111111111111000000111101111 j
b11111111111111111000000111101111 %
b11111111111111111000000111101111 0
1+
0$
0!
#490000
14
15
b11111111111111111111111111111110 F
b11111111111111111111111111111110 S
b11111111111111111111111111111110 Z
19
b111111111111111111111111111111110 U
b10010 L
b10010 n
b10010 r
b10 K
b10 R
b0 J
b0 Q
b0 &"
b1 G
b1 T
b1 }
b0 D
b0 !"
b10 E
b10 ~
b10 A
b10 d
b10 ""
b110 ("
b10 (
b10 ,
b10 1
b10 >
b10 _
b10 a
b10010 H
b10010 [
b10010 ]
b11111111111111111000000111101111 @
b11111111111111111000000111101111 k
b11111111111111111000000111101111 m
b101 '"
0+
1$
1!
#500000
1+
0$
0!
#510000
04
05
b1110 F
b1110 S
b1110 Z
09
1W
1g
1p
b1110 U
b1110 L
b1110 n
b1110 r
b1100 J
b1100 Q
b1 &"
b10 <
b10 $"
b10 D
b10 !"
bx000011 8
bx000011 %"
b0 G
b0 T
b0 }
b0 E
b0 ~
b0 A
b0 d
b0 ""
b110 ("
b11111111111111111111111111111110 H
b11111111111111111111111111111110 [
b11111111111111111111111111111110 ]
b0 '"
0+
1$
1!
#520000
1+
0$
0!
#530000
19
05
b100 F
b100 S
b100 Z
b100000000000000000000000000000100 U
0W
0g
0p
b1111111 {
b1101111 |
b11 v
b0 :
b0 `
b0 t
b11111 x
b11111 w
b11111111111111111111111111111000 B
b11111111111111111111111111111000 b
b11111111111111111111111111111000 e
b11111111111111111111111111111000 K
b11111111111111111111111111111000 R
b1110 )
b1110 -
b1110 I
b110 &"
b11 A
b11 d
b11 ""
b1 E
b1 ~
b0 <
b0 $"
b1 D
b1 !"
bx000000 8
bx000000 %"
b110 ("
b1110 =
b1110 X
b1110 o
b1110 q
b11111111111111111000000111101111 6
b11111111111111111000000111101111 c
b11111111111111111000000111101111 h
b11111111111111111000000111101111 i
b1100 7
b1100 V
b1100 Y
b1110 H
b1110 [
b1110 ]
b1 '"
0+
1$
1!
#540000
b1110011 *
b1110011 2
b1110011 f
b1110011 j
b1110011 %
b1110011 0
1+
0$
0!
#550000
b1110 F
b1110 S
b1110 Z
09
b1110 U
1p
b100 L
b100 n
b100 r
b10 K
b10 R
b1010 &"
bx000001 8
bx000001 %"
b10 D
b10 !"
b1 E
b1 ~
b11 A
b11 d
b11 ""
b110 ("
b1110011 @
b1110011 k
b1110011 m
b100 H
b100 [
b100 ]
b0 (
b0 ,
b0 1
b0 >
b0 _
b0 a
b110 '"
0+
1$
1!
#560000
1+
0$
0!
#570000
b100 F
b100 S
b100 Z
b100 U
1u
b11111111111111111111111111111111 B
b11111111111111111111111111111111 b
b11111111111111111111111111111111 e
0p
b1110 L
b1110 n
b1110 r
b0 K
b0 R
b100 J
b100 Q
b100 )
b100 -
b100 I
b0 &"
b0 D
b0 !"
b0 E
b0 ~
b0 A
b0 d
b0 ""
bx000100 8
bx000100 %"
b110 ("
b100 =
b100 X
b100 o
b100 q
b1110 H
b1110 [
b1110 ]
b1010 '"
0+
1$
1!
#580000
b1000000001000001000000010110011 *
b1000000001000001000000010110011 2
b1000000001000001000000010110011 f
b1000000001000001000000010110011 j
b1000000001000001000000010110011 %
b1000000001000001000000010110011 0
1+
0$
0!
#590000
b110 F
b110 S
b110 Z
b110 U
1W
1g
1p
0u
b110 L
b110 n
b110 r
b10 K
b10 R
b1 &"
b10 <
b10 $"
b10 D
b10 !"
bx000011 8
bx000011 %"
b110 ("
b1000000001000001000000010110011 @
b1000000001000001000000010110011 k
b1000000001000001000000010110011 m
b100 H
b100 [
b100 ]
b0 '"
0+
1$
1!
#600000
1+
0$
0!
#610000
b10000000110 F
b10000000110 S
b10000000110 Z
09
b10000000110 U
0W
0g
0p
b100000 {
b110011 |
b1 v
b1 :
b1 `
b1 t
b10 x
b10 ;
b10 O
b10 s
b1 w
b10000000010 B
b10000000010 b
b10000000010 e
b10000000010 K
b10000000010 R
b110 )
b110 -
b110 I
b10 &"
b0 A
b0 d
b0 ""
b1 E
b1 ~
b0 <
b0 $"
b1 D
b1 !"
bx000000 8
bx000000 %"
b110 ("
b110 =
b110 X
b110 o
b110 q
b1000000001000001000000010110011 6
b1000000001000001000000010110011 c
b1000000001000001000000010110011 h
b1000000001000001000000010110011 i
b100 7
b100 V
b100 Y
b110 H
b110 [
b110 ]
b1 '"
0+
1$
1!
#620000
b100000000111100100011 *
b100000000111100100011 2
b100000000111100100011 f
b100000000111100100011 j
b100000000111100100011 %
b100000000111100100011 0
1+
0$
0!
#630000
b1 F
b1 S
b1 Z
b1 U
b10000000110 L
b10000000110 n
b10000000110 r
b1 K
b1 R
b10 J
b10 Q
b1010 &"
b1 G
b1 T
b1 }
b0 D
b0 !"
b10 E
b10 ~
b110 ("
b100000000111100100011 @
b100000000111100100011 k
b100000000111100100011 m
b10000000110 H
b10000000110 [
b10000000110 ]
b1 (
b1 ,
b1 1
b1 >
b1 _
b1 a
b10 ?
b10 M
b10 P
b10 '"
0+
1$
1!
#640000
1+
0$
0!
#650000
b111 F
b111 S
b111 Z
1u
b111 U
b1 L
b1 n
b1 r
b110 J
b110 Q
b0 &"
bx000100 8
bx000100 %"
b0 G
b0 T
b0 }
b0 E
b0 ~
b110 ("
b1 H
b1 [
b1 ]
b1010 '"
0+
1$
1!
#660000
1+
0$
0!
#670000
b1000 F
b1000 S
b1000 Z
b1000 U
1W
1g
1p
0u
b1000 L
b1000 n
b1000 r
b10 K
b10 R
b1 &"
b10 <
b10 $"
b10 D
b10 !"
bx000011 8
bx000011 %"
b110 ("
b111 H
b111 [
b111 ]
b1 ;
b1 O
b1 s
b0 '"
0+
1$
1!
#680000
1+
0$
0!
#690000
b111 F
b111 S
b111 Z
b111 U
0W
0g
0p
b0 {
b100011 |
b11110 v
b1 x
b0 ;
b0 O
b0 s
b0 w
b1 B
b1 b
b1 e
b1 K
b1 R
b1000 )
b1000 -
b1000 I
b11 &"
b1 E
b1 ~
b0 <
b0 $"
b1 D
b1 !"
bx000000 8
bx000000 %"
b110 ("
b1000 =
b1000 X
b1000 o
b1000 q
b100000000111100100011 6
b100000000111100100011 c
b100000000111100100011 h
b100000000111100100011 i
b110 7
b110 V
b110 Y
b1 ?
b1 M
b1 P
b1000 H
b1000 [
b1000 ]
b1 '"
0+
1$
1!
#700000
b1111000000000010000000011 *
b1111000000000010000000011 2
b1111000000000010000000011 f
b1111000000000010000000011 j
b1111000000000010000000011 %
b1111000000000010000000011 0
1+
0$
0!
#710000
b11110 F
b11110 S
b11110 Z
b11110 K
b11110 R
b111 )
b111 -
b111 I
b11110 U
b11110 B
b11110 b
b11110 e
b111 L
b111 n
b111 r
b0 J
b0 Q
b1000 &"
bx010000 8
bx010000 %"
b1 A
b1 d
b1 ""
b1 D
b1 !"
b10 E
b10 ~
b110 ("
b1111000000000010000000011 @
b1111000000000010000000011 k
b1111000000000010000000011 m
b111 H
b111 [
b111 ]
b0 ?
b0 M
b0 P
b11 '"
0+
1$
1!
#720000
b1111001000110000000111100000 *
b1111001000110000000111100000 2
b1111001000110000000111100000 f
b1111001000110000000111100000 j
b1111001000110000000111100000 %
b1111001000110000000111100000 0
1+
0$
0!
#730000
b1001 F
b1001 S
b1001 Z
b11110 )
b11110 -
b11110 I
b1001 U
1&
b1 B
b1 b
b1 e
b11110 L
b11110 n
b11110 r
b1 K
b1 R
b1000 J
b1000 Q
b0 &"
b0 D
b0 !"
b0 E
b0 ~
b0 A
b0 d
b0 ""
bx011000 8
bx011000 %"
b110 ("
b11110 H
b11110 [
b11110 ]
b1111001000110000000111100000 @
b1111001000110000000111100000 k
b1111001000110000000111100000 m
b1000 '"
0+
1$
1!
#740000
b10 *
b10 2
b10 f
b10 j
b10 %
b10 0
1+
0$
0!
#750000
b1010 F
b1010 S
b1010 Z
b1010 U
1W
1g
1p
0&
b1010 L
b1010 n
b1010 r
b10 K
b10 R
b1000 )
b1000 -
b1000 I
b1 &"
b10 <
b10 $"
b10 D
b10 !"
bx000011 8
bx000011 %"
b110 ("
b10 @
b10 k
b10 m
b1001 H
b1001 [
b1001 ]
b0 '"
0+
1$
1!
#760000
b1111000000000010000000011 *
b1111000000000010000000011 2
b1111000000000010000000011 f
b1111000000000010000000011 j
b1111000000000010000000011 %
b1111000000000010000000011 0
1+
0$
0!
#770000
b100110 F
b100110 S
b100110 Z
b100110 U
0W
0g
0p
b11 |
b1000 v
b0 :
b0 `
b0 t
b11110 x
b11110 B
b11110 b
b11110 e
b11110 K
b11110 R
b1010 )
b1010 -
b1010 I
b100 &"
b1 E
b1 ~
b0 <
b0 $"
b1 D
b1 !"
bx000000 8
bx000000 %"
b110 ("
b1010 =
b1010 X
b1010 o
b1010 q
b1111000000000010000000011 6
b1111000000000010000000011 c
b1111000000000010000000011 h
b1111000000000010000000011 i
b1000 7
b1000 V
b1000 Y
b1010 H
b1010 [
b1010 ]
b1111000000000010000000011 @
b1111000000000010000000011 k
b1111000000000010000000011 m
b1 '"
0+
1$
1!
#780000
b100000000000010001100011 *
b100000000000010001100011 2
b100000000000010001100011 f
b100000000000010001100011 j
b100000000000010001100011 %
b100000000000010001100011 0
1+
0$
0!
#790000
b100110 )
b100110 -
b100110 I
b11110 F
b11110 S
b11110 Z
b11110 U
b100110 L
b100110 n
b100110 r
b0 J
b0 Q
b111 &"
bx010000 8
bx010000 %"
b1 D
b1 !"
b10 E
b10 ~
b110 ("
b100000000000010001100011 @
b100000000000010001100011 k
b100000000000010001100011 m
b100110 H
b100110 [
b100110 ]
b0 (
b0 ,
b0 1
b0 >
b0 _
b0 a
b100 '"
0+
1$
1!
#800000
bx *
bx 2
bx f
bx j
bx %
bx 0
1+
0$
0!
#810000
b11110 )
b11110 -
b11110 I
b1010 F
b1010 S
b1010 Z
b1010 U
b11110 L
b11110 n
b11110 r
b0 K
b0 R
b1010 J
b1010 Q
b1001 &"
b0 D
b0 !"
b0 E
b0 ~
bx010000 8
bx010000 %"
b110 ("
b11110 H
b11110 [
b11110 ]
bx @
bx k
bx m
b111 '"
0+
1$
1!
#820000
b1 *
b1 2
b1 f
b1 j
b1 %
b1 0
1+
0$
0!
#830000
1u
b1 L
b1 n
b1 r
b1010 )
b1010 -
b1010 I
b0 &"
b1 <
b1 $"
bx000100 8
bx000100 %"
b110 ("
b1 @
b1 k
b1 m
b1010 H
b1010 [
b1010 ]
b1001 '"
0+
1$
1!
#840000
b100000000000010001100011 *
b100000000000010001100011 2
b100000000000010001100011 f
b100000000000010001100011 j
b100000000000010001100011 %
b100000000000010001100011 0
1+
0$
0!
