tests/Control.vcd
$date
	Fri Jul  3 09:10:54 2026
$end
$version
	Icarus Verilog
$end
$timescale
	1ps
$end
$scope module tb_Control $end
$var wire 7 ! ctrl_signal [6:0] $end
$var wire 2 " RETsrc [1:0] $end
$var wire 3 # MEMdata [2:0] $end
$var wire 2 $ Immtype [1:0] $end
$var wire 2 % ALUsrcB [1:0] $end
$var wire 2 & ALUsrcA [1:0] $end
$var wire 4 ' ALUctrl [3:0] $end
$var reg 1 ( clock $end
$var reg 3 ) funct3 [2:0] $end
$var reg 7 * funct7 [6:0] $end
$var reg 1 + negative $end
$var reg 7 , opcode [6:0] $end
$var reg 1 - reset $end
$var reg 1 . zero $end
$var integer 32 / failed [31:0] $end
$var integer 32 0 passed [31:0] $end
$scope module dut $end
$var wire 1 ( clock $end
$var wire 3 1 funct3 [2:0] $end
$var wire 7 2 funct7 [6:0] $end
$var wire 1 + negative $end
$var wire 7 3 opcode [6:0] $end
$var wire 1 - reset $end
$var wire 1 . zero $end
$var reg 4 4 ALUctrl [3:0] $end
$var reg 2 5 ALUsrcA [1:0] $end
$var reg 2 6 ALUsrcB [1:0] $end
$var reg 2 7 Immtype [1:0] $end
$var reg 3 8 MEMdata [2:0] $end
$var reg 2 9 RETsrc [1:0] $end
$var reg 7 : ctrl_signal [6:0] $end
$var reg 5 ; next_state [4:0] $end
$var reg 5 < state [4:0] $end
$var integer 32 = i [31:0] $end
$scope task MEM_read $end
$upscope $end
$scope task MEM_wb $end
$upscope $end
$scope task MEM_write $end
$upscope $end
$scope task REG_wb $end
$upscope $end
$scope task type_B $end
$upscope $end
$scope task type_I $end
$upscope $end
$scope task type_R $end
$upscope $end
$scope task type_S $end
$upscope $end
$scope task type_U $end
$upscope $end
$upscope $end
$scope task check $end
$upscope $end
$scope task cpu_reset $end
$upscope $end
$scope task step $end
$upscope $end
$upscope $end
$enddefinitions $end
$comment Show the parameter values. $end
$dumpall
$end
#0
$dumpvars
b110 =
b0 <
b1 ;
bx000011 :
b10 9
bx 8
b0 7
b10 6
b0 5
b0 4
b110011 3
b0 2
b0 1
b0 0
b0 /
0.
1-
b110011 ,
0+
b0 *
b0 )
0(
b0 '
b0 &
b10 %
b0 $
bx #
b10 "
bx000011 !
$end
#10000
1(
#20000
0(
#30000
1(
#31000
0-
#33000
b1 0
#34000
b10 0
#35000
b11 0
#36000
b100 0
#37000
b101 0
#38000
b110 0
#40000
0(
#50000
b10 ;
b1 &
b1 5
b0 "
b0 9
b1 %
b1 6
bx000000 !
bx000000 :
b110 =
b1 <
1(
#52000
b111 0
#53000
b1000 0
#54000
b1001 0
#55000
b1010 0
#60000
0(
#70000
b1010 ;
b0 %
b0 6
b10 &
b10 5
b110 =
b10 <
1(
#73000
b1 '
b1 4
b10 &
b10 5
b110 =
b1010 ;
b100000 *
b100000 2
b1011 0
#75000
b101 '
b101 4
b10 &
b10 5
b110 =
b1010 ;
b1 )
b1 1
b1100 0
#77000
b1 '
b1 4
b10 &
b10 5
b110 =
b1010 ;
b10 )
b10 1
b1101 0
#79000
b10 &
b10 5
b110 =
b1010 ;
b11 )
b11 1
b1110 0
#80000
0(
#81000
b100 '
b100 4
b10 &
b10 5
b110 =
b1010 ;
b100 )
b100 1
b1111 0
#83000
b110 '
b110 4
b10 &
b10 5
b110 =
b1010 ;
b0 *
b0 2
b101 )
b101 1
b10000 0
#85000
b111 '
b111 4
b10 &
b10 5
b110 =
b1010 ;
b100000 *
b100000 2
b10001 0
#87000
b11 '
b11 4
b10 &
b10 5
b110 =
b1010 ;
b110 )
b110 1
b10010 0
#89000
b10 '
b10 4
b10 &
b10 5
b110 =
b1010 ;
b111 )
b111 1
b10011 0
#90000
b0 ;
bx000100 !
bx000100 :
b0 &
b0 5
b110 =
b1010 <
1(
#91000
b1 ;
b10 "
b10 9
b0 '
b0 4
b10 %
b10 6
bx000011 !
bx000011 :
b110 =
b0 <
1-
b10100 0
#100000
0(
#110000
1(
#120000
0(
#130000
1(
#131000
0-
#132000
b10 "
b10 9
b10 %
b10 6
bx000011 !
bx000011 :
b110 =
b1 ;
b10011 ,
b10011 3
#140000
0(
#150000
b100 ;
b1 &
b1 5
b0 "
b0 9
b1 %
b1 6
bx000000 !
bx000000 :
b110 =
b1 <
1(
#160000
0(
#170000
b1010 ;
b10 '
b10 4
b1 %
b1 6
b10 &
b10 5
b110 =
b100 <
1(
#171000
b0 '
b0 4
b1 %
b1 6
b10 &
b10 5
b110 =
b1010 ;
b0 )
b0 1
#173000
b1 '
b1 4
b1 %
b1 6
b10 &
b10 5
b110 =
b1010 ;
b10 )
b10 1
b10101 0
#175000
b1 %
b1 6
b10 &
b10 5
b110 =
b1010 ;
b11 )
b11 1
b10110 0
#177000
b100 '
b100 4
b1 %
b1 6
b10 &
b10 5
b110 =
b1010 ;
b100 )
b100 1
b10111 0
#179000
b11 '
b11 4
b1 %
b1 6
b10 &
b10 5
b110 =
b1010 ;
b110 )
b110 1
b11000 0
#180000
0(
#181000
b10 '
b10 4
b1 %
b1 6
b10 &
b10 5
b110 =
b1010 ;
b111 )
b111 1
b11001 0
#183000
b10 "
b10 9
b0 '
b0 4
bx000011 !
bx000011 :
b10 %
b10 6
b0 &
b0 5
b110 =
b1 ;
b0 <
1-
b11010 0
#190000
1(
#200000
0(
#210000
1(
#211000
0-
#212000
b10 "
b10 9
b10 %
b10 6
bx000011 !
bx000011 :
b110 =
b1 ;
b11 ,
b11 3
#220000
0(
#230000
b100 ;
b1 &
b1 5
b0 "
b0 9
b1 %
b1 6
bx000000 !
bx000000 :
b110 =
b1 <
1(
#240000
0(
#250000
b111 ;
b1 %
b1 6
b10 &
b10 5
b110 =
b100 <
1(
#252000
b11011 0
#260000
0(
#270000
b1001 ;
bx010000 !
bx010000 :
b0 %
b0 6
b0 &
b0 5
b110 =
b111 <
1(
#271000
b0 #
b0 8
bx010000 !
bx010000 :
b110 =
b1001 ;
b0 )
b0 1
#273000
b1 #
b1 8
bx010000 !
bx010000 :
b110 =
b1001 ;
b1 )
b1 1
b11100 0
#275000
b10 #
b10 8
bx010000 !
bx010000 :
b110 =
b1001 ;
b10 )
b10 1
b11101 0
#277000
b11 #
b11 8
bx010000 !
bx010000 :
b110 =
b1001 ;
b100 )
b100 1
b11110 0
#279000
b100 #
b100 8
bx010000 !
bx010000 :
b110 =
b1001 ;
b101 )
b101 1
b11111 0
#280000
0(
#281000
b10 "
b10 9
b10 %
b10 6
bx000011 !
bx000011 :
b110 =
b1 ;
b0 <
1-
b100000 0
#290000
1(
#300000
0(
#310000
1(
#311000
0-
#312000
b10 "
b10 9
b10 %
b10 6
bx000011 !
bx000011 :
b110 =
b1 ;
b100011 ,
b100011 3
#320000
0(
#330000
b11 ;
b1 &
b1 5
b0 "
b0 9
b1 %
b1 6
bx000000 !
bx000000 :
b110 =
b1 <
1(
#340000
0(
#350000
b1000 ;
b1 $
b1 7
b1 %
b1 6
b10 &
b10 5
b110 =
b11 <
1(
#352000
b100001 0
#360000
0(
#370000
b0 ;
bx011000 !
bx011000 :
b0 %
b0 6
b0 &
b0 5
b0 $
b0 7
b110 =
b1000 <
1(
#371000
b0 #
b0 8
bx011000 !
bx011000 :
b110 =
b0 ;
b0 )
b0 1
#373000
b1 #
b1 8
bx011000 !
bx011000 :
b110 =
b0 ;
b1 )
b1 1
b100010 0
#375000
b10 #
b10 8
bx011000 !
bx011000 :
b110 =
b0 ;
b10 )
b10 1
b100011 0
#377000
b1 ;
b10 "
b10 9
b10 %
b10 6
bx000011 !
bx000011 :
b110 =
b0 <
1-
b100100 0
#380000
0(
#390000
1(
#400000
0(
#410000
1(
#411000
0-
#412000
b10 "
b10 9
b10 %
b10 6
bx000011 !
bx000011 :
b110 =
b1 ;
b1100011 ,
b1100011 3
#420000
0(
#430000
b101 ;
b10 $
b10 7
b1 &
b1 5
b0 "
b0 9
b1 %
b1 6
bx000000 !
bx000000 :
b110 =
b1 <
1(
#440000
0(
#450000
b0 ;
b0 %
b0 6
b10 &
b10 5
b10 $
b10 7
b110 =
b101 <
1(
#452000
bx000001 !
bx000001 :
b1 '
b1 4
b10 &
b10 5
b10 $
b10 7
b110 =
b0 ;
1.
b0 )
b0 1
b100101 0
#454000
b10 &
b10 5
b10 $
b10 7
bx000001 !
bx000001 :
b110 =
b0 ;
b1 )
b1 1
0.
b100110 0
#456000
b10 &
b10 5
b10 $
b10 7
bx000001 !
bx000001 :
b110 =
b0 ;
1+
b100 )
b100 1
b100111 0
#458000
b10 "
b10 9
b0 '
b0 4
b10 %
b10 6
b0 <
b0 &
b0 5
b0 $
b0 7
bx000011 !
bx000011 :
b110 =
b1 ;
1-
0+
b101000 0
#460000
0(
#470000
1(
#480000
0(
#490000
1(
#491000
0-
#492000
b10 "
b10 9
b10 %
b10 6
bx000011 !
bx000011 :
b110 =
b1 ;
b110111 ,
b110111 3
#500000
0(
#510000
b110 ;
b1 &
b1 5
b0 "
b0 9
b1 %
b1 6
bx000000 !
bx000000 :
b110 =
b1 <
1(
#520000
0(
#530000
b1010 ;
b1000 '
b1000 4
b11 $
b11 7
b1 %
b1 6
b0 &
b0 5
b110 =
b110 <
1(
#532000
b10 "
b10 9
b0 '
b0 4
bx000011 !
bx000011 :
b10 %
b10 6
b0 $
b0 7
b110 =
b1 ;
b0 <
1-
b101001 0
#540000
0(
#550000
1(
#560000
0(
#570000
1(
#571000
0-
#572000
b10 "
b10 9
b10 %
b10 6
bx000011 !
bx000011 :
b110 =
b1 ;
b10111 ,
b10111 3
#580000
0(
#590000
b110 ;
b1 &
b1 5
b0 "
b0 9
b1 %
b1 6
bx000000 !
bx000000 :
b110 =
b1 <
1(
#600000
0(
#610000
b1010 ;
b1001 '
b1001 4
b11 $
b11 7
b1 %
b1 6
b1 &
b1 5
b110 =
b110 <
1(
#612000
b10 "
b10 9
b0 '
b0 4
bx000011 !
bx000011 :
b10 %
b10 6
b0 &
b0 5
b0 $
b0 7
b110 =
b1 ;
b0 <
1-
b101010 0
#620000
0(
#630000
1(
#640000
0(
#650000
1(
#651000
0-
#652000
b10 "
b10 9
b10 %
b10 6
bx000011 !
bx000011 :
b110 =
b1 ;
b1101111 ,
b1101111 3
#660000
0(
#670000
b110 ;
b11 $
b11 7
b1 &
b1 5
b0 "
b0 9
b1 %
b1 6
bx000000 !
bx000000 :
b110 =
b1 <
1(
#680000
0(
#690000
b1010 ;
bx000001 !
bx000001 :
b10 %
b10 6
b0 &
b0 5
b11 $
b11 7
b110 =
b110 <
1(
#692000
b10 "
b10 9
b10 %
b10 6
b0 $
b0 7
bx000011 !
bx000011 :
b110 =
b1 ;
b0 <
1-
b101011 0
#700000
0(
#710000
1(
#720000
0(
#730000
1(
#731000
0-
#732000
b10 "
b10 9
b10 %
b10 6
bx000011 !
bx000011 :
b110 =
b1 ;
b1100111 ,
b1100111 3
#740000
0(
#750000
b100 ;
b1 &
b1 5
b0 "
b0 9
b1 %
b1 6
bx000000 !
bx000000 :
b110 =
b1 <
1(
#760000
0(
#770000
b1010 ;
bx000001 !
bx000001 :
b1 %
b1 6
b10 &
b10 5
b110 =
b100 <
1(
#772000
b10 "
b10 9
b10 %
b10 6
b0 &
b0 5
bx000011 !
bx000011 :
b110 =
b1 ;
b0 <
1-
b101100 0
#780000
0(
#790000
1(
#800000
0(
#810000
1(
#811000
0-
#812000
b10 "
b10 9
b10 %
b10 6
bx000011 !
bx000011 :
b110 =
b1 ;
b1111111 ,
b1111111 3
#820000
0(
#830000
b0 ;
b1 &
b1 5
b0 "
b0 9
b1 %
b1 6
bx000000 !
bx000000 :
b110 =
b1 <
1(
#832000
b1 ;
b10 "
b10 9
bx000011 !
bx000011 :
b10 %
b10 6
b0 &
b0 5
b110 =
b0 <
1-
b101101 0
#840000
0(
#850000
1(
#860000
0(
#870000
1(
#871000
0-
#872000
b10 "
b10 9
b10 %
b10 6
bx000011 !
bx000011 :
b110 =
b1 ;
b1110011 ,
b1110011 3
#880000
0(
#890000
b100 ;
b1 &
b1 5
b0 "
b0 9
b1 %
b1 6
bx000000 !
bx000000 :
b110 =
b1 <
1(
#892000
b101110 0
#900000
0(
#910000
b1011 ;
b1 %
b1 6
b10 &
b10 5
b110 =
b100 <
1(
#912000
b101111 0
#920000
0(
#930000
bx100000 !
bx100000 :
b0 %
b0 6
b0 &
b0 5
b110 =
b1011 <
1(
#932000
b110000 0
#940000
0(
#950000
1(
#952000
b110001 0
#960000
0(
#970000
1(
#972000
b110010 0
