tests/rom.vcd
$date
	Wed Jun 17 06:14:26 2026
$end
$version
	Icarus Verilog
$end
$timescale
	1ps
$end
$scope module tb_ROM $end
$var wire 32 ! DataOut [31:0] $end
$var reg 32 " Address [31:0] $end
$var reg 32 # DataIn [31:0] $end
$var reg 1 $ MEMWrite $end
$var reg 1 % clock $end
$scope module dut $end
$var wire 32 & Address [31:0] $end
$var wire 32 ' DataIn [31:0] $end
$var wire 1 $ MEMWrite $end
$var wire 1 % clock $end
$var parameter 64 ( INIT_FILE $end
$var parameter 32 ) depth $end
$var reg 32 * DataOut [31:0] $end
$upscope $end
$scope task check $end
$var reg 32 + expected [31:0] $end
$var reg 256 , msg [255:0] $end
$upscope $end
$upscope $end
$enddefinitions $end
$comment Show the parameter values. $end
$dumpall
b100 )
b111010001100101011100110111010000101110011011010110010101101101 (
$end
#0
$dumpvars
bx ,
bx +
bx *
bx '
bx &
0%
0$
bx #
bx "
bx !
$end
#5000
1%
#10000
b0 "
b0 &
0%
#15000
b10001000100010010001000100010 !
b10001000100010010001000100010 *
1%
#20000
b10000010110010001100100011100100110010101110011011100110010000000110000 ,
b10001000100010010001000100010 +
0%
#25000
1%
#30000
b10 "
b10 &
0%
#35000
b110011001100110100010001000100 !
b110011001100110100010001000100 *
1%
#40000
b10000010110010001100100011100100110010101110011011100110010000000110010 ,
b110011001100110100010001000100 +
0%
#45000
1%
#50000
b1001100110011001100110011001 #
b1001100110011001100110011001 '
b100 "
b100 &
0%
#55000
b1010101010101010110011001100110 !
b1010101010101010110011001100110 *
1%
#60000
b10000010110010001100100011100100110010101110011011100110010000000110100 ,
b1010101010101010110011001100110 +
0%
#65000
1%
#70000
b10010001101000101011001111000 #
b10010001101000101011001111000 '
1$
b0 "
b0 &
0%
#75000
b10001000100010010001000100010 !
b10001000100010010001000100010 *
1%
#80000
b1001111011011000110010000100000010000010110010001100100011100100110010101110011011100110010000000110000 ,
b10001000100010010001000100010 +
0$
0%
#85000
b10010001101000101011001111000 !
b10010001101000101011001111000 *
1%
#90000
b1001110011001010111011100100000010000010110010001100100011100100110010101110011011100110010000000110000 ,
b10010001101000101011001111000 +
0%
#95000
1%
#100000
1$
b11001010111111101011111010111110 #
b11001010111111101011111010111110 '
0%
#105000
1%
#110000
b11011110101011011011111011101111 #
b11011110101011011011111011101111 '
b10 "
b10 &
0%
#115000
b110011001100110100010001000100 !
b110011001100110100010001000100 *
1%
#120000
b10011000011101100101010000110010 #
b10011000011101100101010000110010 '
b1110 "
b1110 &
0%
#125000
bx !
bx *
1%
#130000
b0 "
b0 &
0$
0%
#135000
b11001010111111101011111010111110 !
b11001010111111101011111010111110 *
1%
#140000
b10 "
b10 &
b1010111001011110101001000100000010000010110010001100100011100100110010101110011011100110010000000110000 ,
b11001010111111101011111010111110 +
0%
#145000
b11011110101011011011111011101111 !
b11011110101011011011111011101111 *
1%
#150000
b1110 "
b1110 &
b1010111001011110101001000100000010000010110010001100100011100100110010101110011011100110010000000110010 ,
b11011110101011011011111011101111 +
0%
#155000
b10011000011101100101010000110010 !
b10011000011101100101010000110010 *
1%
#160000
b1010111001011110101001000100000010000010110010001100100011100100110010101110011011100110010000001101100011000010111001101110100 ,
b10011000011101100101010000110010 +
0%
#165000
1%
#170000
1$
b11111111111111111111111111111111 #
b11111111111111111111111111111111 '
b1010 "
b1010 &
0%
#175000
bx !
bx *
1%
#180000
b10010001101000001001000110100 #
b10010001101000001001000110100 '
0%
#185000
b11111111111111111111111111111111 !
b11111111111111111111111111111111 *
1%
#190000
0$
0%
#195000
b10010001101000001001000110100 !
b10010001101000001001000110100 *
1%
#200000
b100111101110110011001010111001001110111011100100110100101110100011001010010000001000001011001000110010001110010011001010111001101110011001000000011000100110000 ,
b10010001101000001001000110100 +
0%
